{
	"invoices": [],
	"_meta": {
		"sortDirection": "ASC",
		"totalRecords": 177,
		"limit": 100,
		"count": 0,
		"totalPages": 2,
		"sortBy": ["invoiceDate"],
		"page": 3
	}
}
