{
	"measurements": [
		{
			"partyId": "16A64870-DF4D-4A27-A514-56297AB6F8D9",
			"facilityId": "735999109170208042",
			"category": "ELECTRICITY",
			"aggregatedOn": "DAY",
			"measurementType": "Energy",
			"unit": "kWh",
			"value": 6.41,
			"timestamp": "2022-04-08T00:00:00+02:00",
			"interpolation": 0
		},
		{
			"partyId": "16A64870-DF4D-4A27-A514-56297AB6F8D9",
			"facilityId": "735999109170208042",
			"category": "ELECTRICITY",
			"aggregatedOn": "DAY",
			"measurementType": "Energy",
			"unit": "kWh",
			"value": 4.587,
			"timestamp": "2022-04-09T00:00:00+02:00",
			"interpolation": 24
		}
	],
	"_meta": {
		"page": 2,
		"limit": 2,
		"count": 2,
		"totalRecords": 5,
		"totalPages": 3,
		"sortBy": [
			"measurementTimestamp"
		],
		"sortDirection": "ASC"
	}
}