{
	"_meta": {
		"totalRecords": 3,
		"limit": 2,
		"count": 2,
		"totalPages": 2,
		"page": 1
	},
	"customerDetails": [
		{
			"customerEngagementOrgName": "Sundsvall Energi AB",
			"installedChangedFlg": true,
			"city": "Sundsvall",
			"postalCode": "85234",
			"active": true,
			"customerNumber": "123454",
			"customerCategoryID": 2,
			"customerChangedFlg": false,
			"customerEngagementOrgId": "5564786647",
			"customerName": "Test Testorsson",
			"phoneNumbers": [
				"+46761234567",
				"+46761234567"
			],
			"emails": [],
			"careOf": "c/o Testorsson",
			"customerCategoryDescription": "Företag1",
			"street": "Testvägen12 c lgh 1005",
			"partyId": "9f395f51-b5ed-401b-b700-ef70cbb15d79"
		},
		{
			"customerEngagementOrgName": "Sundsvall Energi AB",
			"installedChangedFlg": true,
			"city": "Sundsvall",
			"postalCode": "85234",
			"active": true,
			"customerNumber": "123455",
			"customerCategoryID": 2,
			"customerChangedFlg": false,
			"customerEngagementOrgId": "5564786647",
			"customerName": "Test Testorsson",
			"phoneNumbers": [
				"+46761234567",
				"+46761234567"
			],
			"emails": [],
			"careOf": "c/o Testorsson",
			"customerCategoryDescription": "Företag2",
			"street": "Testvägen11 c lgh 1005",
			"partyId": "9f395f51-b5ed-401b-b700-ef70cbb15d80"
		}
	]
}
