{
	"installedBase": [
		{
			"metaData": [
				{
					"displayName": "Beräknad årlig förbrukning",
					"type": "kW",
					"value": "1739",
					"key": "annualusage"
				},
				{
					"displayName": "Säkringsstorlek",
					"type": "A",
					"value": "10",
					"key": "fusesize"
				},
				{
					"displayName": "Nätområde",
					"type": "location",
					"value": "Sundsvall tätort",
					"key": "netarea"
				}
			],
			"facilityId": "735999109420818922",
			"placementId": 35347,
			"careOf": "Fastighetsförmedling AB",
			"street": "Vägen",
			"company": "Sundsvall Elnät",
			"customerNumber": "10335",
			"type": "El",
			"dateFrom": "2017-08-27"
		},
		{
			"metaData": [
				{
					"displayName": "Beräknad årlig förbrukning",
					"type": "kW",
					"value": "1260",
					"key": "annualusage"
				},
				{
					"displayName": "Säkringsstorlek",
					"type": "A",
					"value": "10",
					"key": "fusesize"
				},
				{
					"displayName": "Nätområde",
					"type": "location",
					"value": "Sundsvall tätort",
					"key": "netarea"
				}
			],
			"facilityId": "735999109452603886",
			"placementId": 35352,
			"careOf": "Fastighetsförmedling AB",
			"street": "Vägen 5",
			"company": "Sundsvall Elnät",
			"customerNumber": "10335",
			"type": "El",
			"dateFrom": "1997-03-11"
		},
		{
			"metaData": [
				{
					"displayName": "Beräknad årlig förbrukning",
					"type": "kW",
					"value": "2411",
					"key": "annualusage"
				},
				{
					"displayName": "Säkringsstorlek",
					"type": "A",
					"value": "10",
					"key": "fusesize"
				},
				{
					"displayName": "Nätområde",
					"type": "location",
					"value": "Sundsvall tätort",
					"key": "netarea"
				}
			],
			"facilityId": "735999109452901883",
			"placementId": 35353,
			"careOf": "Fastighetsförmedling AB",
			"street": "Vägen Park",
			"company": "Sundsvall Elnät",
			"customerNumber": "10335",
			"type": "El",
			"dateFrom": "1997-03-11"
		},
		{
			"metaData": [
				{
					"displayName": "Beräknad årlig förbrukning",
					"type": "kW",
					"value": "1879",
					"key": "annualusage"
				},
				{
					"displayName": "Säkringsstorlek",
					"type": "A",
					"value": "10",
					"key": "fusesize"
				},
				{
					"displayName": "Nätområde",
					"type": "location",
					"value": "Sundsvall tätort",
					"key": "netarea"
				}
			],
			"facilityId": "735999109452901890",
			"placementId": 35354,
			"careOf": "Fastighetsförmedling AB",
			"street": "Vägen Fast",
			"company": "Sundsvall Elnät",
			"customerNumber": "10335",
			"type": "El",
			"dateFrom": "2010-07-03"
		},
		{
			"metaData": [
				{
					"displayName": "Beräknad årlig förbrukning",
					"type": "kW",
					"value": "1814",
					"key": "annualusage"
				},
				{
					"displayName": "Säkringsstorlek",
					"type": "A",
					"value": "10",
					"key": "fusesize"
				},
				{
					"displayName": "Nätområde",
					"type": "location",
					"value": "Sundsvall tätort",
					"key": "netarea"
				}
			],
			"facilityId": "735999109114705002",
			"placementId": 35359,
			"careOf": "Fastighetsförmedling AB",
			"city": "SUNDSVALL",
			"street": "Allén 18",
			"company": "Sundsvall Elnät",
			"postCode": "85236",
			"customerNumber": "10335",
			"type": "El",
			"dateFrom": "2004-04-14"
		},
		{
			"metaData": [
				{
					"displayName": "Beräknad årlig förbrukning",
					"type": "kW",
					"value": "31294",
					"key": "annualusage"
				},
				{
					"displayName": "Säkringsstorlek",
					"type": "A",
					"value": "13",
					"key": "fusesize"
				},
				{
					"displayName": "Nätområde",
					"type": "location",
					"value": "Sundsvall tätort",
					"key": "netarea"
				}
			],
			"facilityId": "735999109114706009",
			"placementId": 35385,
			"careOf": "Fastighetsförmedling AB",
			"city": "SUNDSVALL",
			"street": "Allén 20",
			"company": "Sundsvall Elnät",
			"postCode": "85236",
			"customerNumber": "10335",
			"type": "El",
			"dateFrom": "2005-10-13"
		},
		{
			"metaData": [
				{
					"displayName": "Beräknad årlig förbrukning",
					"type": "kW",
					"value": "5093",
					"key": "annualusage"
				},
				{
					"displayName": "Säkringsstorlek",
					"type": "A",
					"value": "10",
					"key": "fusesize"
				},
				{
					"displayName": "Nätområde",
					"type": "location",
					"value": "Sundsvall tätort",
					"key": "netarea"
				}
			],
			"facilityId": "735999109252712009",
			"placementId": 35999,
			"careOf": "Fastighetsförmedling AB",
			"city": "SUNDSVALL",
			"street": "Vägen 282  Parkering",
			"company": "Sundsvall Elnät",
			"postCode": "85652",
			"customerNumber": "10335",
			"type": "El",
			"dateFrom": "2006-05-23"
		},
		{
			"metaData": [
				{
					"displayName": "Beräknad årlig förbrukning",
					"type": "kW",
					"value": "22507",
					"key": "annualusage"
				},
				{
					"displayName": "Säkringsstorlek",
					"type": "A",
					"value": "10",
					"key": "fusesize"
				},
				{
					"displayName": "Nätområde",
					"type": "location",
					"value": "Sundsvall tätort",
					"key": "netarea"
				}
			],
			"facilityId": "735999109252611005",
			"placementId": 36001,
			"careOf": "Fastighetsförmedling AB",
			"city": "SUNDSVALL",
			"street": "Vägen 282 A",
			"company": "Sundsvall Elnät",
			"postCode": "85652",
			"customerNumber": "10335",
			"type": "El",
			"dateFrom": "2001-07-11"
		},
		{
			"metaData": [
				{
					"displayName": "Beräknad årlig förbrukning",
					"type": "kW",
					"value": "1148",
					"key": "annualusage"
				},
				{
					"displayName": "Säkringsstorlek",
					"type": "A",
					"value": "10",
					"key": "fusesize"
				},
				{
					"displayName": "Nätområde",
					"type": "location",
					"value": "Sundsvall tätort",
					"key": "netarea"
				}
			],
			"facilityId": "9251832325",
			"placementId": 36002,
			"careOf": "Fastighetsförmedling AB",
			"city": "SUNDSVALL",
			"street": "Vägen 282 A",
			"company": "Sundsvall Elnät",
			"postCode": "856 52",
			"customerNumber": "10335",
			"type": "El",
			"dateFrom": "2013-12-27"
		},
		{
			"metaData": [
				{
					"displayName": "Beräknad årlig förbrukning",
					"type": "kW",
					"value": "2505",
					"key": "annualusage"
				},
				{
					"displayName": "Säkringsstorlek",
					"type": "A",
					"value": "10",
					"key": "fusesize"
				},
				{
					"displayName": "Nätområde",
					"type": "location",
					"value": "Sundsvall tätort",
					"key": "netarea"
				}
			],
			"facilityId": "735999109173512092",
			"placementId": 36360,
			"careOf": "Fastighetsförmedling AB",
			"city": "SUNDSVALL",
			"street": "Vägen 45",
			"company": "Sundsvall Elnät",
			"postCode": "85239",
			"customerNumber": "10335",
			"type": "El",
			"dateFrom": "2013-01-12"
		}
	],
	"_meta": {
		"totalRecords": 180,
		"limit": 10,
		"count": 10,
		"totalPages": 18,
		"page": 18
	}
}
