{
	"invoices": [
		{
			"customerNumber": "10335",
			"customerType": "Enterprise",
			"facilityIds": [
				"735999109323710330"
			],
			"invoiceDescriptions": [
				"El"
			],
			"invoiceNumber": 139349393,
			"invoiceDate": "2019-10-10",
			"invoiceName": "139349393.pdf",
			"invoiceType": "Faktura",
			"invoiceStatus": "Skickad",
			"ocrNumber": 139349393,
			"dueDate": "2019-11-11",
			"totalAmount": 1030.0000,
			"amountVatIncluded": 1029.7600,
			"amountVatExcluded": 823.8100,
			"vatEligibleAmount": 823.8100,
			"rounding": 0.2400,
			"vat": 823.8100,
			"reversedVat": false,
			"currency": "sek",
			"organizationGroup": "stadsbacken",
			"organizationNumber": "5565027223",
			"administration": "Sundsvall Elnät",
			"street": "Fakturor",
			"postCode": "85185",
			"city": "SUNDSVALL",
			"careOf": "Fastighetsförmedling AB",
			"pdfAvailable": false
		},
		{
			"customerNumber": "10335",
			"customerType": "Enterprise",
			"facilityIds": [
				"735999109323712013"
			],
			"invoiceDescriptions": [
				"El"
			],
			"invoiceNumber": 139349492,
			"invoiceDate": "2019-10-10",
			"invoiceName": "139349492.pdf",
			"invoiceType": "Faktura",
			"invoiceStatus": "Skickad",
			"ocrNumber": 139349492,
			"dueDate": "2019-11-11",
			"totalAmount": 1648.0000,
			"amountVatIncluded": 1648.3400,
			"amountVatExcluded": 1318.6700,
			"vatEligibleAmount": 1318.6700,
			"rounding": -0.3400,
			"vat": 1318.6700,
			"reversedVat": false,
			"currency": "sek",
			"organizationGroup": "stadsbacken",
			"organizationNumber": "5565027223",
			"administration": "Sundsvall Elnät",
			"street": "Fakturor",
			"postCode": "85185",
			"city": "SUNDSVALL",
			"careOf": "Fastighetsförmedling AB",
			"pdfAvailable": false
		},
		{
			"customerNumber": "10335",
			"customerType": "Enterprise",
			"facilityIds": [
				"735999109323715014"
			],
			"invoiceDescriptions": [
				"El"
			],
			"invoiceNumber": 139349591,
			"invoiceDate": "2019-10-10",
			"invoiceName": "139349591.pdf",
			"invoiceType": "Faktura",
			"invoiceStatus": "Skickad",
			"ocrNumber": 139349591,
			"dueDate": "2019-11-11",
			"totalAmount": 1463.0000,
			"amountVatIncluded": 1462.9300,
			"amountVatExcluded": 1170.3400,
			"vatEligibleAmount": 1170.3400,
			"rounding": 0.0700,
			"vat": 1170.3400,
			"reversedVat": false,
			"currency": "sek",
			"organizationGroup": "stadsbacken",
			"organizationNumber": "5565027223",
			"administration": "Sundsvall Elnät",
			"street": "Fakturor",
			"postCode": "85185",
			"city": "SUNDSVALL",
			"careOf": "Fastighetsförmedling AB",
			"pdfAvailable": false
		},
		{
			"customerNumber": "10335",
			"customerType": "Enterprise",
			"facilityIds": [
				"735999109323716011"
			],
			"invoiceDescriptions": [
				"El"
			],
			"invoiceNumber": 139349690,
			"invoiceDate": "2019-10-10",
			"invoiceName": "139349690.pdf",
			"invoiceType": "Faktura",
			"invoiceStatus": "Skickad",
			"ocrNumber": 139349690,
			"dueDate": "2019-11-11",
			"totalAmount": 1240.0000,
			"amountVatIncluded": 1240.0400,
			"amountVatExcluded": 992.0300,
			"vatEligibleAmount": 992.0300,
			"rounding": -0.0400,
			"vat": 992.0300,
			"reversedVat": false,
			"currency": "sek",
			"organizationGroup": "stadsbacken",
			"organizationNumber": "5565027223",
			"administration": "Sundsvall Elnät",
			"street": "Fakturor",
			"postCode": "85185",
			"city": "SUNDSVALL",
			"careOf": "Fastighetsförmedling AB",
			"pdfAvailable": false
		},
		{
			"customerNumber": "10335",
			"customerType": "Enterprise",
			"facilityIds": [
				"735999109451406020"
			],
			"invoiceDescriptions": [
				"El"
			],
			"invoiceNumber": 139349799,
			"invoiceDate": "2019-10-10",
			"invoiceName": "139349799.pdf",
			"invoiceType": "Faktura",
			"invoiceStatus": "Skickad",
			"ocrNumber": 139349799,
			"dueDate": "2019-11-11",
			"totalAmount": 994.0000,
			"amountVatIncluded": 994.2900,
			"amountVatExcluded": 795.4300,
			"vatEligibleAmount": 795.4300,
			"rounding": -0.2900,
			"vat": 795.4300,
			"reversedVat": false,
			"currency": "sek",
			"organizationGroup": "stadsbacken",
			"organizationNumber": "5565027223",
			"administration": "Sundsvall Elnät",
			"street": "Fakturor",
			"postCode": "85185",
			"city": "SUNDSVALL",
			"careOf": "Fastighetsförmedling AB",
			"pdfAvailable": false
		},
		{
			"customerNumber": "10335",
			"customerType": "Enterprise",
			"facilityIds": [
				"735999109451436027"
			],
			"invoiceDescriptions": [
				"El"
			],
			"invoiceNumber": 139349898,
			"invoiceDate": "2019-10-10",
			"invoiceName": "139349898.pdf",
			"invoiceType": "Faktura",
			"invoiceStatus": "Skickad",
			"ocrNumber": 139349898,
			"dueDate": "2019-11-11",
			"totalAmount": 1323.0000,
			"amountVatIncluded": 1322.8100,
			"amountVatExcluded": 1058.2500,
			"vatEligibleAmount": 1058.2500,
			"rounding": 0.1900,
			"vat": 1058.2500,
			"reversedVat": false,
			"currency": "sek",
			"organizationGroup": "stadsbacken",
			"organizationNumber": "5565027223",
			"administration": "Sundsvall Elnät",
			"street": "Fakturor",
			"postCode": "85185",
			"city": "SUNDSVALL",
			"careOf": "Fastighetsförmedling AB",
			"pdfAvailable": false
		},
		{
			"customerNumber": "600606",
			"customerType": "Enterprise",
			"facilityIds": [
				"600606"
			],
			"invoiceDescriptions": [
				"El"
			],
			"invoiceNumber": 767916190,
			"invoiceDate": "2019-10-14",
			"invoiceName": "767916190.pdf",
			"invoiceType": "Kreditfaktura",
			"invoiceStatus": "Skickad",
			"ocrNumber": 767916190,
			"dueDate": "2019-10-31",
			"totalAmount": -1900.0000,
			"amountVatIncluded": -1900.0000,
			"amountVatExcluded": -1520.0000,
			"vatEligibleAmount": -1520.0000,
			"rounding": 0.0000,
			"vat": -1520.0000,
			"reversedVat": false,
			"currency": "sek",
			"organizationGroup": "stadsbacken",
			"organizationNumber": "5565027223",
			"administration": "Sundsvall Elnät",
			"street": "DB79B,  FE 11040",
			"postCode": "83882",
			"city": "FRÖSÖN",
			"careOf": "Fräscha fastigheter AB",
			"pdfAvailable": true
		}
	],
	"_meta": {
		"page": 18,
		"limit": 10,
		"count": 7,
		"totalRecords": 177,
		"totalPages": 18,
		"sortBy": [
			"invoiceDate"
		],
		"sortDirection": "ASC"
	}
}
